Berikut hasil Pengolahan Nilai:       
 
      Nilai       	|        Frekuensi 
Kurang dari 6           |	 1
            6      	|      2
            7      	|      61
            8      	|      40
            9      	|      50
           10      	|      36
